<svg id="_033-trash_bin" data-name="033-trash bin" xmlns="http://www.w3.org/2000/svg" width="26.977" height="29.967" viewBox="0 0 26.977 29.967">
  <g id="Groupe_83" data-name="Groupe 83">
    <path id="Tracé_117" data-name="Tracé 117" d="M320.078,190.367l-1.124,12.943a.452.452,0,0,0,.9.074l1.124-12.943a.443.443,0,0,0-.412-.474A.448.448,0,0,0,320.078,190.367Z" transform="translate(-301.672 -178.846)" fill="#bc1414"/>
    <path id="Tracé_118" data-name="Tracé 118" d="M159.8,189.967a.443.443,0,0,0-.412.474l1.124,12.943a.452.452,0,0,0,.9-.074l-1.124-12.943A.448.448,0,0,0,159.8,189.967Z" transform="translate(-151.714 -178.847)" fill="#bc1414"/>
    <path id="Tracé_119" data-name="Tracé 119" d="M248.5,190.4v12.943a.452.452,0,0,0,.9,0V190.4a.452.452,0,0,0-.9,0Z" transform="translate(-235.463 -178.846)" fill="#bc1414"/>
    <path id="Tracé_120" data-name="Tracé 120" d="M56.932,3.391h-7.1V1.848A1.877,1.877,0,0,0,47.927,0h-4.8a1.877,1.877,0,0,0-1.9,1.848V3.391h-7.1a2.057,2.057,0,0,0-2.084,2.025A2.057,2.057,0,0,0,34.122,7.44h.486L36.3,26.905a3.4,3.4,0,0,0,3.428,3.062h11.6a3.4,3.4,0,0,0,3.428-3.062l.234-2.7a.452.452,0,0,0-.9-.074l-.234,2.7a2.524,2.524,0,0,1-2.528,2.258h-11.6A2.524,2.524,0,0,1,37.2,26.832L35.514,7.44h1.337a.439.439,0,1,0,0-.878h-2.73a1.147,1.147,0,1,1,0-2.294h22.81a1.147,1.147,0,1,1,0,2.294H38.964a.439.439,0,1,0,0,.878H55.539L54.268,22.085a.443.443,0,0,0,.412.474l.039,0a.447.447,0,0,0,.45-.4L56.446,7.44h.486a2.057,2.057,0,0,0,2.084-2.025,2.057,2.057,0,0,0-2.084-2.025Zm-8.007,0h-6.8V1.848a.985.985,0,0,1,1-.97h4.8a.985.985,0,0,1,1,.97V3.391Z" transform="translate(-32.038)" fill="#bc1414"/>
  </g>
</svg>
